[
	{
		"type":"4도어+2쇼케이스",
		"dataType":"6door",
		"volume":[908, 1853, 922],
		"subject":["냉장/냉동/맞춤보관"],
		"product":[
			{
				"modelName":"RF85R98A2AP",
				"url" : "https://www.samsung.com/sec/refrigerators/french-door-rf85r98a2ap",
				"department":"F/S",
				"energy":"2등급",
				"price":"4240000",
				"convenience":{
					"UV청정탈취":"",
					"이온살균청정기":"O",
					"빅아이스메이커":"O"
				}
			},
			{
				"modelName":"RF85R98B2AP",
				"url" : "https://www.samsung.com/sec/refrigerators/french-door-rf85r98b2ap",
				"department":"F/S",
				"energy":"2등급",
				"price":"4140000",
				"convenience":{
					"UV청정탈취":"O",
					"이온살균청정기":"",
					"빅아이스메이커":"O"
				}
			},
			{
				"modelName":"RF85R9332AP",
				"url" : "https://www.samsung.com/sec/refrigerators/french-door-rf85r9332ap",
				"department":"F/S",
				"energy":"2등급",
				"price":"3190000",
				"convenience":{
					"UV청정탈취":"",
					"이온살균청정기":"",
					"빅아이스메이커":""
				}
			},
			{
				"modelName":"RF85R9333AP",
				"url" : "https://www.samsung.com/sec/refrigerators/french-door-rf85r9333ap",
				"department":"F/S",
				"energy":"3등급",
				"price":"2890000",
				"convenience":{
					"UV청정탈취":"",
					"이온살균청정기":"",
					"빅아이스메이커":""
				}
			}
		],
		"option" : [
			{	
				"department" : "F/S",
				"list" : [
					{
						"material": "코타 메탈",
						"color" : [
							{
								"name" : {
									"en" : "deepEspresso",
									"kr" : "코타 차콜"
								}
							},
							{
								"name" : {
									"en" : "pocelainW_M",
									"kr" : "코타 화이트"
								}
							},
							{
								"name" : {
									"en" : "pistachio",
									"kr" : "코타 민트"
								}
							}
						]
					},
					{
						"material": "글램/새틴 글래스",
						"color" : [
							{
								"name" : {
									"en" : "pocelainW_G",
									"kr" : "글램 화이트"
								}
							},
							{
								"name" : {
									"en" : "mysticPink",
									"kr" : "글램 핑크"
								}
							},
							{
								"name" : {
									"en" : "stoneGray",
									"kr" : "새틴 그레이"
								}
							},
							{
								"name" : {
									"en" : "silkyNavy",
									"kr" : "새틴 네이비"
								}
							}
						]
					}
				]
			}
		],
		"panel" : [
			[
				{
					"deepEspresso" : {
						"panelCode" : "ra-f18puu05",
						"price":"100000"
					}
				},
				{
					"pocelainW_M" : {
						"panelCode" : "ra-f18puu01",
						"price":"100000"
					}
				},
				{
					"pistachio" : {
						"panelCode" : "ra-f18puu02",
						"price":"100000"
					}
				},
				{
					"pocelainW_G" : {
						"panelCode" : "ra-f18puu35",
						"price":"150000"
					}
				},
				{
					"mysticPink" : {
						"panelCode" : "ra-f18puu32",
						"price":"150000"
					}
				},
				{
					"stoneGray" : {
						"panelCode" : "ra-f18puu31",
						"price":"150000"
					}
				},
				{
					"silkyNavy" : {
						"panelCode" : "ra-f18puu34",
						"price":"150000"
					}
				}
			],
			[
				{
					"deepEspresso" : {
						"panelCode" : "ra-f18pbb05",
						"price":"100000"
					}
				},
				{
					"pocelainW_M" : {
						"panelCode" : "ra-f18pbb01",
						"price":"100000"
					}
				},
				{
					"pistachio" : {
						"panelCode" : "ra-f18pbb02",
						"price":"100000"
					}
				},
				{
					"pocelainW_G" : {
						"panelCode" : "ra-f18pbb35",
						"price":"150000"
					}
				},
				{
					"mysticPink" : {
						"panelCode" : "ra-f18pbb32",
						"price":"150000"
					}
				},
				{
					"stoneGray" : {
						"panelCode" : "ra-f18pbb31",
						"price":"150000"
					}
				},
				{
					"silkyNavy" : {
						"panelCode" : "ra-f18pbb34",
						"price":"150000"
					}
				}
			]
		]
	},
	{

		"type":"4도어+1쇼케이스",
		"dataType":"5door",
		"volume":[908, 1853, 922],
		"subject":["냉장/냉동/맞춤보관"],
		"product":[
			{
				"modelName":"RF85R96A1AP",
				"url" : "https://www.samsung.com/sec/refrigerators/french-door-rf85r96a1ap",
				"department":"F/S",
				"energy":"1등급",
				"price":"4040000",
				"convenience":{
					"UV청정탈취":"",
					"이온살균청정기":"O",
					"빅아이스메이커":"O"
				}
			},
			{
				"modelName":"RF85R9281AP",
				"url" : "https://www.samsung.com/sec/refrigerators/french-door-rf85r9281ap",
				"department":"F/S",
				"energy":"1등급",
				"price":"3390000",
				"convenience":{
					"UV청정탈취":"",
					"이온살균청정기":"O",
					"빅아이스메이커":""
				}
			},
			{
				"modelName":"RF85R9271AP",
				"url" : "https://www.samsung.com/sec/refrigerators/french-door-rf85r9271ap",
				"department":"F/S",
				"energy":"1등급",
				"price":"3290000",
				"convenience":{
					"UV청정탈취":"O",
					"이온살균청정기":"",
					"빅아이스메이커":""
				}
			},
			{
				"modelName":"RF85R9261AP",
				"url" : "https://www.samsung.com/sec/refrigerators/french-door-rf85r9261ap",
				"department":"F/S",
				"energy":"1등급",
				"price":"3190000",
				"convenience":{
					"UV청정탈취":"",
					"이온살균청정기":"",
					"빅아이스메이커":""
				}
			},

			{
				"modelName":"RF85R9262AP",
				"url" : "https://www.samsung.com/sec/refrigerators/french-door-rf85r9262ap",
				"department":"F/S",
				"energy":"2등급",
				"price":"2890000",
				"convenience":{
					"UV청정탈취":"",
					"이온살균청정기":"",
					"빅아이스메이커":""
				}
			},
			{
				"modelName":"RF85R9233AP",
				"url" : "https://www.samsung.com/sec/refrigerators/french-door-rf85r9233ap",
				"department":"F/S",
				"energy":"3등급",
				"price":"2490000",
				"convenience":{
					"UV청정탈취":"",
					"이온살균청정기":"",
					"빅아이스메이커":""
				}
			}
			
		],
		"option" : [
			{	
				"department" : "F/S",
				"list" : [
					{
						"material": "코타 메탈",
						"color" : [
							{
								"name" : {
									"en" : "deepEspresso",
									"kr" : "코타 차콜"
								}
							},
							{
								"name" : {
									"en" : "pocelainW_M",
									"kr" : "코타 화이트"
								}
							},
							{
								"name" : {
									"en" : "pistachio",
									"kr" : "코타 민트"
								}
							}
						]
					},
					{
						"material": "글램/새틴 글래스",
						"color" : [
							{
								"name" : {
									"en" : "pocelainW_G",
									"kr" : "글램 화이트"
								}
							},
							{
								"name" : {
									"en" : "mysticPink",
									"kr" : "글램 핑크"
								}
							},
							{
								"name" : {
									"en" : "stoneGray",
									"kr" : "새틴 그레이"
								}
							},
							{
								"name" : {
									"en" : "silkyNavy",
									"kr" : "새틴 네이비"
								}
							}
						]
					}
				]
			}
		],
		"panel" : [
			[
				{
					"deepEspresso" : {
						"panelCode" : "ra-f18puu05",
						"price":"100000"
					}
				},
				{
					"pocelainW_M" : {
						"panelCode" : "ra-f18puu01",
						"price":"100000"
					}
				},
				{
					"pistachio" : {
						"panelCode" : "ra-f18puu02",
						"price":"100000"
					}
				},
				{
					"pocelainW_G" : {
						"panelCode" : "ra-f18puu35",
						"price":"150000"
					}
				},
				{
					"mysticPink" : {
						"panelCode" : "ra-f18puu32",
						"price":"150000"
					}
				},
				{
					"stoneGray" : {
						"panelCode" : "ra-f18puu31",
						"price":"150000"
					}
				},
				{
					"silkyNavy" : {
						"panelCode" : "ra-f18puu34",
						"price":"150000"
					}
				}
			],
			[
				{
					"deepEspresso" : {
						"panelCode" : "ra-f18pbb05",
						"price":"100000"
					}
				},
				{
					"pocelainW_M" : {
						"panelCode" : "ra-f18pbb01",
						"price":"100000"
					}
				},
				{
					"pistachio" : {
						"panelCode" : "ra-f18pbb02",
						"price":"100000"
					}
				},
				{
					"pocelainW_G" : {
						"panelCode" : "ra-f18pbb35",
						"price":"150000"
					}
				},
				{
					"mysticPink" : {
						"panelCode" : "ra-f18pbb32",
						"price":"150000"
					}
				},
				{
					"stoneGray" : {
						"panelCode" : "ra-f18pbb31",
						"price":"150000"
					}
				},
				{
					"silkyNavy" : {
						"panelCode" : "ra-f18pbb34",
						"price":"150000"
					}
				}
			]
		]
	},
	{
		"type":"4도어",
		"dataType":"4door",
		"volume":[908, 1853, 922],
		"subject":["냉장/냉동/맞춤보관"],
		"product":[
			{
				"modelName":"RF85R9141AP",
				"url" : "https://www.samsung.com/sec/refrigerators/french-door-rf85r9141ap",
				"department":"F/S",
				"energy":"1등급",
				"price":"2540000",
				"convenience":{
					"UV청정탈취":"O",
					"이온살균청정기":"",
					"빅아이스메이커":""
				}
			},
			{
				"modelName":"RF85R9131AP",
				"url" : "https://www.samsung.com/sec/refrigerators/french-door-rf85r9131ap",
				"department":"F/S",
				"energy":"1등급",
				"price":"2440000",
				"convenience":{
					"UV청정탈취":"",
					"이온살균청정기":"",
					"빅아이스메이커":""
				}
			},
			{
				"modelName":"RF85R9132AP",
				"url" : "https://www.samsung.com/sec/refrigerators/french-door-rf85r9132ap",
				"department":"F/S",
				"energy":"2등급",
				"price":"2390000",
				"convenience":{
					"UV청정탈취":"",
					"이온살균청정기":"",
					"빅아이스메이커":""
				}
			},
			{
				"modelName":"RF85R9013AP",
				"url" : "https://www.samsung.com/sec/refrigerators/french-door-rf85r9013ap",
				"department":"F/S",
				"energy":"3등급",
				"price":"2090000",
				"convenience":{
					"UV청정탈취":"",
					"이온살균청정기":"",
					"빅아이스메이커":""
				}
			},
			{
				"modelName":"RF85R9003AP",
				"url" : "https://www.samsung.com/sec/refrigerators/french-door-rf85r9003ap",
				"department":"F/S",
				"energy":"3등급",
				"price":"2090000",
				"convenience":{
					"UV청정탈취":"",
					"이온살균청정기":"",
					"빅아이스메이커":""
				}
			},
			{
				"modelName":"RF85R9203AP",
				"url" : "https://www.samsung.com/sec/refrigerators/french-door-rf85r9203ap",
				"department":"F/S",
				"energy":"3등급",
				"price":"2490000",
				"convenience":{
					"UV청정탈취":"",
					"이온살균청정기":"",
					"빅아이스메이커":""
				}
			}
		],
		"option" : [
			{	
				"department" : "F/S",
				"list" : [
					{
						"material": "코타 메탈",
						"color" : [
							{
								"name" : {
									"en" : "deepEspresso",
									"kr" : "코타 차콜"
								}
							},
							{
								"name" : {
									"en" : "pocelainW_M",
									"kr" : "코타 화이트"
								}
							},
							{
								"name" : {
									"en" : "pistachio",
									"kr" : "코타 민트"
								}
							}
						]
					},
					{
						"material": "글램/새틴 글래스",
						"color" : [
							{
								"name" : {
									"en" : "pocelainW_G",
									"kr" : "글램 화이트"
								}
							},
							{
								"name" : {
									"en" : "mysticPink",
									"kr" : "글램 핑크"
								}
							},
							{
								"name" : {
									"en" : "stoneGray",
									"kr" : "새틴 그레이"
								}
							},
							{
								"name" : {
									"en" : "silkyNavy",
									"kr" : "새틴 네이비"
								}
							}
						]
					}
				]
			}
		],
		"panel" : [
			[
				{
					"deepEspresso" : {
						"panelCode" : "ra-f18puu05",
						"price":"100000"
					}
				},
				{
					"pocelainW_M" : {
						"panelCode" : "ra-f18puu01",
						"price":"100000"
					}
				},
				{
					"pistachio" : {
						"panelCode" : "ra-f18puu02",
						"price":"100000"
					}
				},
				{
					"pocelainW_G" : {
						"panelCode" : "ra-f18puu35",
						"price":"150000"
					}
				},
				{
					"mysticPink" : {
						"panelCode" : "ra-f18puu32",
						"price":"150000"
					}
				},
				{
					"stoneGray" : {
						"panelCode" : "ra-f18puu31",
						"price":"150000"
					}
				},
				{
					"silkyNavy" : {
						"panelCode" : "ra-f18puu34",
						"price":"150000"
					}
				}
			],
			[
				{
					"deepEspresso" : {
						"panelCode" : "ra-f18pbb05",
						"price":"100000"
					}
				},
				{
					"pocelainW_M" : {
						"panelCode" : "ra-f18pbb01",
						"price":"100000"
					}
				},
				{
					"pistachio" : {
						"panelCode" : "ra-f18pbb02",
						"price":"100000"
					}
				},
				{
					"pocelainW_G" : {
						"panelCode" : "ra-f18pbb35",
						"price":"150000"
					}
				},
				{
					"mysticPink" : {
						"panelCode" : "ra-f18pbb32",
						"price":"150000"
					}
				},
				{
					"stoneGray" : {
						"panelCode" : "ra-f18pbb31",
						"price":"150000"
					}
				},
				{
					"silkyNavy" : {
						"panelCode" : "ra-f18pbb34",
						"price":"150000"
					}
				}
			]
		]
	},
	{
		"type":"4도어(키친핏)",
		"dataType":"4door_kf",
		"volume":[908, 1853, 697],
		"subject":["냉장/냉동/맞춤보관"],
		"product":[
			{
				"modelName":"RF61R91C3AP",
				"url" : "https://www.samsung.com/sec/refrigerators/french-door-rf61r91c3ap",
				"department":"K/F",
				"energy":"3등급",
				"price":"2999000",
				"convenience":{
					"UV청정탈취":"",
					"이온살균청정기":"",
					"빅아이스메이커":""
				}
			}
		],
		"option" : [
			{
				"department" : "K/F",
				"list" : [
					{
						"material": "코타 메탈",
						"color" : [
							{
								"name" : {
									"en" : "deepEspresso",
									"kr" : "코타 차콜"
								}
							},
							{
								"name" : {
									"en" : "pocelainW_M",
									"kr" : "코타 화이트"
								}
							},
							{
								"name" : {
									"en" : "pistachio",
									"kr" : "코타 민트"
								}
							}
						]
					},
					{
						"material": "글램/새틴 글래스",
						"color" : [
							{
								"name" : {
									"en" : "pocelainW_G",
									"kr" : "글램 화이트"
								}
							},
							{
								"name" : {
									"en" : "mysticPink",
									"kr" : "글램 핑크"
								}
							},
							{
								"name" : {
									"en" : "stoneGray",
									"kr" : "새틴 그레이"
								}
							},
							{
								"name" : {
									"en" : "silkyNavy",
									"kr" : "새틴 네이비"
								}
							}
						]
					}
				]
			}
		],
		"panel" : [
			[
				{
					"deepEspresso" : {
						"panelCode" : "ra-f17puu05",
						"price":"100000"
					}
				},
				{
					"pocelainW_M" : {
						"panelCode" : "ra-f17puu01",
						"price":"100000"
					}
				},
				{
					"pistachio" : {
						"panelCode" : "ra-f17puu02",
						"price":"100000"
					}
				},
				{
					"pocelainW_G" : {
						"panelCode" : "ra-f17puu35",
						"price":"150000"
					}
				},
				{
					"mysticPink" : {
						"panelCode" : "ra-f17puu32",
						"price":"150000"
					}
				},
				{
					"stoneGray" : {
						"panelCode" : "ra-f17puu31",
						"price":"150000"
					}
				},
				{
					"silkyNavy" : {
						"panelCode" : "ra-f17puu34",
						"price":"150000"
					}
				}

			],
			[
				{
					"deepEspresso" : {
						"panelCode" : "ra-f17pbb05",
						"price":"100000"
					}
				},
				{
					"pocelainW_M" : {
						"panelCode" : "ra-f17pbb01",
						"price":"100000"
					}
				},
				{
					"pistachio" : {
						"panelCode" : "ra-f17pbb02",
						"price":"100000"
					}
				},
				{
					"pocelainW_G" : {
						"panelCode" : "ra-f17pbb35",
						"price":"150000"
					}
				},
				{
					"mysticPink" : {
						"panelCode" : "ra-f17pbb32",
						"price":"150000"
					}
				},
				{
					"stoneGray" : {
						"panelCode" : "ra-f17pbb31",
						"price":"150000"
					}
				},
				{
					"silkyNavy" : {
						"panelCode" : "ra-f17pbb34",
						"price":"150000"
					}
				}
			]
		]
	},
	{
		"type":"3도어",
		"dataType":"3door",
		"volume":[695, 1853, 600],
		"subject":["김치플러스"],
		"product":[
			{
				"modelName":"RQ33R7422AP",
				"url" : "https://www.samsung.com/sec/refrigerators/kimchi-stand-rq33r7422ap",
				"department" : "K/F",
				"energy":"2등급",
				"price":"1749000",
				"convenience":{
					"UV청정탈취":"",
					"이온살균청정기":"",
					"빅아이스메이커":""
				}
			}
		],
			"option" : [
				{
					"department" : "K/F",
					"list" : [

						{
							"material": "코타 메탈",
							"color" : [
								{
									"name" : {
										"en" : "deepEspresso",
										"kr" : "코타 차콜"
									}
								},
								{
									"name" : {
										"en" : "pocelainW_M",
										"kr" : "코타 화이트"
									}
								},
								{
									"name" : {
										"en" : "pistachio",
										"kr" : "코타 민트"
									}
								}
							]
						},
						{
							"material": "글램/새틴 글래스",
							"color" : [
								{
									"name" : {
										"en" : "pocelainW_G",
										"kr" : "글램 화이트"
									}
								},
								{
									"name" : {
										"en" : "mysticPink",
										"kr" : "글램 핑크"
									}
								},
								{
									"name" : {
										"en" : "stoneGray",
										"kr" : "새틴 그레이"
									}
								},
								{
									"name" : {
										"en" : "silkyNavy",
										"kr" : "새틴 네이비"
									}
								}
							]
						}
					]
				}
			],
			"panel" : [
				[
					{
						"deepEspresso" : {
						    "panelCode" : "ra-k27puu05",
						    "price":"200000"
						}
					},
					{
						"pocelainW_M" : {
						    "panelCode" : "ra-k27puu01",
						    "price":"200000"
						}
					},
					{
						"pistachio" : {
						    "panelCode" : "ra-k27puu02",
						    "price":"200000"
						}
					},
					{
						"pocelainW_G" : {
						    "panelCode" : "ra-k27puu35",
						    "price":"300000"
						}
					},
					{
						"mysticPink" : {
						    "panelCode" : "ra-k27puu32",
						    "price":"300000"
						}
					},
					{
						"stoneGray" : {
						    "panelCode" : "ra-k27puu31",
						    "price":"300000"
						}
					},
					{
						"silkyNavy" : {
						    "panelCode" : "ra-k27puu34",
						    "price":"300000"
						}
					},
					{
						"coral" : {
						    "panelCode" : "ra-k27puu03",
						    "price":"300000"
						}
					},
					{
						"yellow" : {
						    "panelCode" : "ra-k27puu04",
						    "price":"300000"
						}
					}
				],
				[
					{
						"deepEspresso" : {
						    "panelCode" : "ra-k27pmm05",
						    "price":"100000"
						}
					},
					{
						"pocelainW_M" : {
						    "panelCode" : "ra-k27pmm01",
						    "price":"100000"
						}
					},
					{
						"pistachio" : {
						    "panelCode" : "ra-k27pmm02",
						    "price":"100000"
						}
					},
					{
						"pocelainW_G" : {
						    "panelCode" : "ra-k27pmm35",
						    "price":"150000"
						}
					},
					{
						"mysticPink" : {
						    "panelCode" : "ra-k27pmm32",
						    "price":"150000"
						}
					},
					{
						"stoneGray" : {
						    "panelCode" : "ra-k27pmm31",
						    "price":"150000"
						}
					},
					{
						"silkyNavy" : {
						    "panelCode" : "ra-k27pmm34",
						    "price":"150000"
						}
					},
					{
						"coral" : {
						    "panelCode" : "ra-k27pmm03",
						    "price":"150000"
						}
					},
					{
						"yellow" : {
						    "panelCode" : "ra-k27pmm04",
						    "price":"150000"
						}
					}
				],
				[
					{
						"deepEspresso" : {
						    "panelCode" : "ra-k27pbb05",
						    "price":"100000"
						}
					},
					{
						"pocelainW_M" : {
						    "panelCode" : "ra-k27pbb01",
						    "price":"100000"
						}
					},
					{
						"pistachio" : {
						    "panelCode" : "ra-k27pbb02",
						    "price":"100000"
						}
					},
					{
						"pocelainW_G" : {
						    "panelCode" : "ra-k27pbb35",
						    "price":"150000"
						}
					},
					{
						"mysticPink" : {
						    "panelCode" : "ra-k27pbb32",
						    "price":"150000"
						}
					},
					{
						"stoneGray" : {
						    "panelCode" : "ra-k27pbb31",
						    "price":"150000"
						}
					},
					{
						"silkyNavy" : {
						    "panelCode" : "ra-k27pbb34",
						    "price":"150000"
						}
					},
					{
						"coral" : {
						    "panelCode" : "ra-k27pbb03",
						    "price":"150000"
						}
					},
					{
						"yellow" : {
						    "panelCode" : "ra-k27pbb04",
						    "price":"150000"
						}
					}
				]
			]
	},
	{
		"type":"2도어",
		"dataType":"2door",
		"volume":[595, 1853, 669],
		"subject":["냉장/냉동"],
		"product":[
			{
				"modelName":"RB33R3004AP",
				"url" : "https://www.samsung.com/sec/refrigerators/bottom-mount-freezer-rb33r3004ap",
				"department":"K/F",
				"energy":"3등급",
				"price":"749000",
				"convenience":{
					"UV청정탈취":"",
					"이온살균청정기":"",
					"빅아이스메이커":""
				}
			}
		],
		"option" : [
			{
				"department" : "K/F",
				"list" : [
					{
						"material": "코타 메탈",
						"color" : [
							{
								"name" : {
									"en" : "deepEspresso",
									"kr" : "코타 차콜"
								}
							},
							{
								"name" : {
									"en" : "pocelainW_M",
									"kr" : "코타 화이트"
								}
							},
							{
								"name" : {
									"en" : "pistachio",
									"kr" : "코타 민트"
								}
							}
						]
					},
					{
						"material": "글램/새틴 글래스",
						"color" : [
							{
								"name" : {
									"en" : "pocelainW_G",
									"kr" : "글램 화이트"
								}
							},
							{
								"name" : {
									"en" : "mysticPink",
									"kr" : "글램 핑크"
								}
							},
							{
								"name" : {
									"en" : "stoneGray",
									"kr" : "새틴 그레이"
								}
							},
							{
								"name" : {
									"en" : "silkyNavy",
									"kr" : "새틴 네이비"
								}
							},
							{
								"name" : {
									"en" : "coral",
									"kr" : "새틴 코럴"
								}
							},
							{
								"name" : {
									"en" : "yellow",
									"kr" : "새틴 옐로우"
								}
							}
						]
					}
				]
			}
		],
		"panel" : [
			[
				{
					"deepEspresso" : {
						"panelCode" : "ra-b23puu05",
						"price":"200000"
					}
				},
				{
					"pocelainW_M" : {
						"panelCode" : "ra-b23puu01",
						"price":"200000"
					}
				},
				{
					"pistachio" : {
						"panelCode" : "ra-b23puu02",
						"price":"200000"
					}
				},
				{
					"pocelainW_G" : {
						"panelCode" : "ra-b23puu35",
						"price":"350000"
					}
				},
				{
					"mysticPink" : {
						"panelCode" : "ra-b23puu32",
						"price":"350000"
					}
				},
				{
					"stoneGray" : {
						"panelCode" : "ra-b23puu31",
						"price":"350000"
					}
				},
				{
					"silkyNavy" : {
						"panelCode" : "ra-b23puu34",
						"price":"350000"
					}
				},
				{
					"coral" : {
						"panelCode" : "ra-b23puu36",
						"price":"350000"
					}
				},
				{
					"yellow" : {
						"panelCode" : "ra-b23puu37",
						"price":"350000"
					}
				}
			],
			[
				{
					"deepEspresso" : {
						"panelCode" : "ra-b23pbb05",
						"price":"100000"
					}
				},
				{
					"pocelainW_M" : {
						"panelCode" : "ra-b23pbb01",
						"price":"100000"
					}
				},
				{
					"pistachio" : {
						"panelCode" : "ra-b23pbb02",
						"price":"100000"
					}
				},
				{
					"pocelainW_G" : {
						"panelCode" : "ra-b23pbb35",
						"price":"150000"
					}},
				{
					"mysticPink" : {
						"panelCode" : "ra-b23pbb32",
						"price":"150000"
					}
				},
				{
					"stoneGray" : {
						"panelCode" : "ra-b23pbb31",
						"price":"150000"
					}
				},
				{
					"silkyNavy" : {
						"panelCode" : "ra-b23pbb34",
						"price":"150000"
					}
				},
				{
					"coral" : {
						"panelCode" : "ra-b23pbb36",
						"price":"150000"
					}
				},
				{
					"yellow" : {
						"panelCode" : "ra-b23pbb37",
						"price":"150000"
					}
				}
			]
		]
	},
	{
		"type":"1도어",
		"dataType":"1door_refrigerator",
		"volume":[595, 1853, 694],
		"subject":["냉장"],
		"product":[
			{
				"modelName":"RR39R7605AP",
				"url" : "https://www.samsung.com/sec/refrigerators/one-door-rr39r7605ap",
				"department":"K/F",
				"subject":"냉장",
				"energy":"1등급",
				"price":"949000",
				"convenience":{
					"UV청정탈취":"",
					"이온살균청정기":"",
					"빅아이스메이커":""
				}
			}
		],
		"option" : [
			{
				"department" : "K/F",
				"list" : [
					{
						"material": "코타 메탈",
						"color" : [
							{
								"name" : {
									"en" : "deepEspresso",
									"kr" : "코타 차콜"
								}
							},
							{
								"name" : {
									"en" : "pocelainW_M",
									"kr" : "코타 화이트"
								}
							},
							{
								"name" : {
									"en" : "pistachio",
									"kr" : "코타 민트"
								}
							}
						]
					},
					{
						"material": "글램/새틴 글래스",
						"color" : [
							{
								"name" : {
									"en" : "pocelainW_G",
									"kr" : "글램 화이트"
								}
							},
							{
								"name" : {
									"en" : "mysticPink",
									"kr" : "글램 핑크"
								}
							},
							{
								"name" : {
									"en" : "stoneGray",
									"kr" : "새틴 그레이"
								}
							},
							{
								"name" : {
									"en" : "silkyNavy",
									"kr" : "새틴 네이비"
								}
							},
							{
								"name" : {
									"en" : "coral",
									"kr" : "새틴 코럴"
								}
							},
							{
								"name" : {
									"en" : "yellow",
									"kr" : "새틴 옐로우"
								}
							}
						]
					}
				]
			}
		],
		"panel" : [
			[
				{
					"deepEspresso" : {
						"panelCode" : "ra-r23paa05",
						"price":"300000"
					}
				},
				{
					"pocelainW_M" : {
						"panelCode" : "ra-r23paa01",
						"price":"300000"
					}
				},
				{
					"pistachio" : {
						"panelCode" : "ra-r23paa02",
						"price":"300000"
					}
				},
				{
					"pocelainW_G" : {
						"panelCode" : "ra-r23paa35",
						"price":"500000"
					}
				},
				{
					"mysticPink" : {
						"panelCode" : "ra-r23paa32",
						"price":"500000"
					}
				},
				{
					"stoneGray" : {
						"panelCode" : "ra-r23paa31",
						"price":"500000"
					}
				},
				{
					"silkyNavy" : {
						"panelCode" : "ra-r23paa34",
						"price":"500000"
					}
				},
				{
					"coral" : {
						"panelCode" : "ra-r23paa36",
						"price":"500000"
					}
				},
				{
					"yellow" : {
						"panelCode" : "ra-r23paa37",
						"price":"500000"
					}
				}
			]
		]
	},
	{

		"type":"1도어",
		"dataType":"1door_freezer",
		"volume":[595, 1853, 694],
		"subject":["냉동"],
		"product":[
			{
				"modelName":"RZ32R7605AP",
				"url" : "https://www.samsung.com/sec/refrigerators/one-door-rz32r7605ap",
				"department":"K/F",
				"subject":"냉동",
				"energy":"1등급",
				"price":"1049000",
				"convenience":{
					"UV청정탈취":"",
					"이온살균청정기":"",
					"빅아이스메이커":""
				}
			}
		],
		"option" : [
			{
				"department" : "K/F",
				"list" : [
					{
						"material": "코타 메탈",
						"color" : [
							{
								"name" : {
									"en" : "deepEspresso",
									"kr" : "코타 차콜"
								}
							},
							{
								"name" : {
									"en" : "pocelainW_M",
									"kr" : "코타 화이트"
								}
							},
							{
								"name" : {
									"en" : "pistachio",
									"kr" : "코타 민트"
								}
							}
						]
					},
					{
						"material": "글램/새틴 글래스",
						"color" : [
							{
								"name" : {
									"en" : "pocelainW_G",
									"kr" : "글램 화이트"
								}
							},
							{
								"name" : {
									"en" : "mysticPink",
									"kr" : "글램 핑크"
								}
							},
							{
								"name" : {
									"en" : "stoneGray",
									"kr" : "새틴 그레이"
								}
							},
							{
								"name" : {
									"en" : "silkyNavy",
									"kr" : "새틴 네이비"
								}
							},
							{
								"name" : {
									"en" : "coral",
									"kr" : "새틴 코럴"
								}
							},
							{
								"name" : {
									"en" : "yellow",
									"kr" : "새틴 옐로우"
								}
							}
						]
					}
				]
			}
		],
		"panel" : [
			[
				{
					"deepEspresso" : {
						"panelCode" : "ra-r23paa05",
						"price":"300000"
					}
				},
				{
					"pocelainW_M" : {
						"panelCode" : "ra-r23paa01",
						"price":"300000"
					}
				},
				{
					"pistachio" : {
						"panelCode" : "ra-r23paa02",
						"price":"300000"
					}
				},
				{
					"pocelainW_G" : {
						"panelCode" : "ra-r23paa35",
						"price":"500000"
					}
				},
				{
					"mysticPink" : {
						"panelCode" : "ra-r23paa32",
						"price":"500000"
					}
				},
				{
					"stoneGray" : {
						"panelCode" : "ra-r23paa31",
						"price":"500000"
					}
				},
				{
					"silkyNavy" : {
						"panelCode" : "ra-r23paa34",
						"price":"500000"
					}
				},
				{
					"coral" : {
						"panelCode" : "ra-r23paa36",
						"price":"500000"
					}
				},
				{
					"yellow" : {
						"panelCode" : "ra-r23paa37",
						"price":"500000"
					}
				}
			]
		]
	
	},
	{
		"type":"1도어",
		"dataType":"1door_kimch",
		"volume":[595, 1853, 694],
		"subject":["김치"],
		"product":[
			{
				"modelName":"RQ32R7612AP",
				"url" : "https://www.samsung.com/sec/refrigerators/kimchi-stand-rq32r7612ap",
				"department":"K/F",
				"subject":"김치",
				"energy":"2등급",
				"price":"1149000",
				"convenience":{
					"UV청정탈취":"",
					"이온살균청정기":"",
					"빅아이스메이커":""
				}
			}
		],
		"option" : [
			{
				"department" : "K/F",
				"list" : [
					{
						"material": "코타 메탈",
						"color" : [
							{
								"name" : {
									"en" : "deepEspresso",
									"kr" : "코타 차콜"
								}
							},
							{
								"name" : {
									"en" : "pocelainW_M",
									"kr" : "코타 화이트"
								}
							},
							{
								"name" : {
									"en" : "pistachio",
									"kr" : "코타 민트"
								}
							}
						]
					},
					{
						"material": "글램/새틴 글래스",
						"color" : [
							{
								"name" : {
									"en" : "pocelainW_G",
									"kr" : "글램 화이트"
								}
							},
							{
								"name" : {
									"en" : "mysticPink",
									"kr" : "글램 핑크"
								}
							},
							{
								"name" : {
									"en" : "stoneGray",
									"kr" : "새틴 그레이"
								}
							},
							{
								"name" : {
									"en" : "silkyNavy",
									"kr" : "새틴 네이비"
								}
							},
							{
								"name" : {
									"en" : "coral",
									"kr" : "새틴 코럴"
								}
							},
							{
								"name" : {
									"en" : "yellow",
									"kr" : "새틴 옐로우"
								}
							}
						]
					}
				]
			}
		],
		"panel" : [
			[
				{
					"deepEspresso" : {
						"panelCode" : "ra-k23paa05",
						"price":"300000"
					}
				},
				{
					"pocelainW_M" : {
						"panelCode" : "ra-k23paa01",
						"price":"300000"
					}
				},
				{
					"pistachio" : {
						"panelCode" : "ra-k23paa02",
						"price":"300000"
					}
				},
				{
					"pocelainW_G" : {
						"panelCode" : "ra-k23paa35",
						"price":"500000"
					}
				},
				{
					"mysticPink" : {
						"panelCode" : "ra-k23paa32",
						"price":"500000"
					}
				},
				{
					"stoneGray" : {
						"panelCode" : "ra-k23paa31",
						"price":"500000"
					}
				},
				{
					"silkyNavy" : {
						"panelCode" : "ra-k23paa34",
						"price":"500000"
					}
				},
				{
					"coral" : {
						"panelCode" : "ra-k23paa36",
						"price":"500000"
					}
				},
				{
					"yellow" : {
						"panelCode" : "ra-k23paa37",
						"price":"500000"
					}
				}
			]
		]
	},
	{
		"type":"1도어(슬림형)",
		"dataType":"1door_slim",
		"volume":[455, 1853, 685],
		"subject":["냉장/냉동/김치"],
		"product":[
			{
				"modelName":"RZ24R5600AP",
				"url" : "https://www.samsung.com/sec/refrigerators/one-door-rz24r5600ap",
				"department" : "K/F",
				"energy":"3등급",
				"price":"799000",
				"convenience":{
					"UV청정탈취":"",
					"이온살균청정기":"",
					"빅아이스메이커":""
				}
			}
		],
		"option" : [
			{
				"department" : "K/F",
				"list" : [
					{
						"material": "코타 메탈",
						"color" : [
							{
								"name" : {
									"en" : "deepEspresso",
									"kr" : "코타 차콜"
								}
							},
							{
								"name" : {
									"en" : "pocelainW_M",
									"kr" : "코타 화이트"
								}
							},
							{
								"name" : {
									"en" : "pistachio",
									"kr" : "코타 민트"
								}
							}
						]
					},
					{
						"material": "글램/새틴 글래스",
						"color" : [
							{
								"name" : {
									"en" : "pocelainW_G",
									"kr" : "글램 화이트"
								}
							},
							{
								"name" : {
									"en" : "mysticPink",
									"kr" : "글램 핑크"
								}
							},
							{
								"name" : {
									"en" : "stoneGray",
									"kr" : "새틴 그레이"
								}
							},
							{
								"name" : {
									"en" : "silkyNavy",
									"kr" : "새틴 네이비"
								}
							},
							{
								"name" : {
									"en" : "coral",
									"kr" : "새틴 코럴"
								}
							},
							{
								"name" : {
									"en" : "yellow",
									"kr" : "새틴 옐로우"
								}
							}
						]
					}
				]
			}
		],
		"panel" : [
			[
				{
					"deepEspresso" : {
						"panelCode" : "ra-m17paa05",
						"price":"300000"
					}
				},
				{
					"pocelainW_M" : {
						"panelCode" : "ra-m17paa01",
						"price":"300000"
					}
				},
				{
					"pistachio" : {
						"panelCode" : "ra-m17paa02",
						"price":"300000"
					}
				},
				{
					"pocelainW_G" : {
						"panelCode" : "ra-m17paa35",
						"price":"500000"
					}
				},
				{
					"mysticPink" : {
						"panelCode" : "ra-m17paa32",
						"price":"500000"
					}
				},
				{
					"stoneGray" : {
						"panelCode" : "ra-m17paa31",
						"price":"500000"
					}
				},
				{
					"silkyNavy" : {
						"panelCode" : "ra-m17paa34",
						"price":"500000"
					}
				},
				{
					"coral" : {
						"panelCode" : "ra-m17paa36",
						"price":"500000"
					}
				},
				{
					"yellow" : {
						"panelCode" : "ra-m17paa37",
						"price":"500000"
					}
				}
			]
		]
	}
]